ApplicationMgr    SUCCESS
====================================================================================================================================
====================================================================================================================================
ApplicationMgr       INFO Application Manager Configured successfully
BooleSequencer       INFO Member list: ProcessPhase/Init, ProcessPhase/Digi, ProcessPhase/Link, ProcessPhase/Moni, ProcessPhase/Filter
RndmGenSvc.Engine    INFO Generator engine type:CLHEP::RanluxEngine
RndmGenSvc.Engine    INFO Current Seed:1234567 Luxury:3
RndmGenSvc           INFO Using Random engine:HepRndm::Engine<CLHEP::RanluxEngine>
Init                 INFO Member list: GaudiSequencer/InitBooleSeq, GaudiSequencer/InitDataSeq, GaudiSequencer/InitMuonSeq
InitBooleSeq         INFO Member list: BooleInit, LHCb::Det::LbDD4hep::IOVProducer/ReserveIOVDD4hep, GaudiSequencer/SpilloverHandler
BooleInit         SUCCESS ==================================================================
BooleInit         SUCCESS Requested to process 10 events
BooleInit         SUCCESS ==================================================================
LHCb::Det::LbDD...   INFO Field map location: DBASE/FieldMap/vXrYpZ/cdf
HistogramPersis...   INFO Added successfully Conversion service:RootHistSvc
HistogramDataSvc     INFO Added stream file:PARAM/ParamFiles/vXrYpZ/data/muonlow-G4.root as LowEnergy
HistogramDataSvc     INFO Added stream file:PARAM/ParamFiles/vXrYpZ/data/muonflat-G4.root as MuonFlatSpillover
SpilloverHandler     INFO Member list: TESCheck/SpilloverLoader, EventNodeKiller/SpilloverKiller
InitDataSeq          INFO Member list:
InitMuonSeq          INFO Member list: MuonBackground/MuonLowEnergy, MuonBackground/MuonFlatSpillover
MuonLowEnergy        INFO The low energy background is run by default for main events plus (if any) spillover events (max 4)
Digi                 INFO Member list: GaudiSequencer/DigiMuonSeq
DigiMuonSeq          INFO Member list: MuonDigitization, MuonDigitToTell40RawBuffer
Link                 INFO Member list: GaudiSequencer/LinkMuonSeq
LinkMuonSeq          INFO Member list: MuonDigit2MCParticleAlg, MuonTileDigitInfo
Moni                 INFO Member list: GaudiSequencer/MoniMuonSeq
MoniMuonSeq          INFO Member list: MuonDigitChecker
Filter               INFO OR Member list:
PrepareDIGI          INFO Member list: PackMCVertex, PackMCParticle
FileRecordPersi...   INFO Added successfully Conversion service:FileRecordCnvSvc
FSROutputStream...   INFO Data source: FileRecordDataSvc output: DATAFILE='PFN:Boole-Muon-10ev.digi' SVC='FileRecordCnvSvc' OPT='REC'
EventPersistenc...   INFO Added successfully Conversion service:RootCnvSvc
DigiWriter           INFO Data source: EventDataSvc output: DATAFILE='PFN:Boole-Muon-10ev.digi' SVC='RootCnvSvc' OPT='REC'
KillVPBanks       SUCCESS bankKiller : all banks of type 'VP' will be removed from [ 'DAQ/RawEvent' ]
EventPersistenc...   INFO Added successfully Conversion service:LHCb::RawDataCnvSvc
RawWriter            INFO Data source: EventDataSvc output: DATAFILE='PFN:Boole-Muon-10ev.mdf' SVC='LHCb::RawDataCnvSvc' OPT='REC'
ApplicationMgr       INFO Application Manager Initialized successfully
LHCb::RawDataCn...   INFO Opened(NEW)  MDF stream:PFN:Boole-Muon-10ev.mdf ID:0x########
ApplicationMgr       INFO Application Manager Started successfully
BooleInit            INFO Evt 2951,  Run 16564960,  Nr. in job = 1
RFileCnv             INFO opening Root file "PARAM/ParamFiles/vXrYpZ/data/muonflat-G4.root" for reading
RFileCnv             INFO opening Root file "PARAM/ParamFiles/vXrYpZ/data/muonlow-G4.root" for reading
DeMagnetConditi...   INFO Loading mag field from DBASE/FieldMap/vXrYpZ/cdf
MagneticFieldEx...   INFO Scale factor: 0.999983
MuonFlatSpillover    INFO  luminosity factor 5.40302 compared to default 2*10^32 cm-2 s-1
BooleInit            INFO Evt 2952,  Run 16564960,  Nr. in job = 2
BooleInit            INFO Evt 2953,  Run 16564960,  Nr. in job = 3
BooleInit            INFO Evt 2954,  Run 16564960,  Nr. in job = 4
BooleInit            INFO Evt 2955,  Run 16564960,  Nr. in job = 5
BooleInit            INFO Evt 2956,  Run 16564960,  Nr. in job = 6
BooleInit            INFO Evt 2957,  Run 16564960,  Nr. in job = 7
BooleInit            INFO Evt 2958,  Run 16564960,  Nr. in job = 8
BooleInit            INFO Evt 2959,  Run 16564960,  Nr. in job = 9
BooleInit            INFO Evt 2960,  Run 16564960,  Nr. in job = 10
ApplicationMgr       INFO Application Manager Stopped successfully
BooleInit         SUCCESS ==================================================================
BooleInit         SUCCESS 10 events processed
BooleInit         SUCCESS ==================================================================
MuonDigitChecker     INFO Muon Monitoring Tables:
MuonDigitChecker     INFO - Digi Information
MuonDigitChecker     INFO  Container: Geant
MuonDigitChecker     INFO  |    |   M2   |   M3   |   M4   |   M5   |
MuonDigitChecker     INFO  | R1 | 69.500 | 39.900 |  7.300 |  4.200 |
MuonDigitChecker     INFO  | R2 | 65.800 |  6.100 |  3.100 |  2.900 |
MuonDigitChecker     INFO  | R3 | 16.600 |  3.700 |  2.000 |  1.300 |
MuonDigitChecker     INFO  | R4 | 12.200 |  3.200 |  0.400 |  0.300 |
MuonDigitChecker     INFO  Container: FlatSpillOver
MuonDigitChecker     INFO  |    |   M2   |   M3   |   M4   |   M5   |
MuonDigitChecker     INFO  | R1 |  0.000 |  0.000 |  0.000 |  0.000 |
MuonDigitChecker     INFO  | R2 |  0.000 |  0.000 |  0.000 |  0.000 |
MuonDigitChecker     INFO  | R3 |  0.000 |  0.000 |  0.000 |  0.000 |
MuonDigitChecker     INFO  | R4 |  0.000 |  0.000 |  0.000 |  0.000 |
MuonDigitChecker     INFO  Container: Low Energy Background
MuonDigitChecker     INFO  |    |   M2   |   M3   |   M4   |   M5   |
MuonDigitChecker     INFO  | R1 |  0.000 |  0.000 |  0.000 |  0.000 |
MuonDigitChecker     INFO  | R2 |  0.000 |  0.000 |  0.000 |  0.000 |
MuonDigitChecker     INFO  | R3 |  0.000 |  0.000 |  0.000 |  0.000 |
MuonDigitChecker     INFO  | R4 |  0.000 |  0.000 |  0.000 |  0.000 |
MuonDigitChecker     INFO  Container: Chamber Noise
MuonDigitChecker     INFO  |    |   M2   |   M3   |   M4   |   M5   |
MuonDigitChecker     INFO  | R1 |  0.000 |  0.000 |  0.000 |  0.000 |
MuonDigitChecker     INFO  | R2 |  0.000 |  0.000 |  0.000 |  0.000 |
MuonDigitChecker     INFO  | R3 |  0.000 |  0.000 |  0.000 |  0.000 |
MuonDigitChecker     INFO  | R4 |  0.000 |  0.000 |  0.000 |  0.000 |
MuonDigitChecker     INFO  Container: Crosstalk
MuonDigitChecker     INFO  |    |   M2   |   M3   |   M4   |   M5   |
MuonDigitChecker     INFO  | R1 |  9.100 |  4.600 |  1.400 |  0.700 |
MuonDigitChecker     INFO  | R2 |  5.300 |  0.200 |  1.000 |  0.100 |
MuonDigitChecker     INFO  | R3 |  2.500 |  0.700 |  0.100 |  0.300 |
MuonDigitChecker     INFO  | R4 |  0.600 |  0.000 |  0.000 |  0.000 |
MuonDigitChecker     INFO  Container: Electronic Noise
MuonDigitChecker     INFO  |    |   M2   |   M3   |   M4   |   M5   |
MuonDigitChecker     INFO  | R1 |  0.000 |  0.000 |  0.000 |  0.000 |
MuonDigitChecker     INFO  | R2 |  0.000 |  0.000 |  0.000 |  0.000 |
MuonDigitChecker     INFO  | R3 |  0.000 |  0.000 |  0.200 |  0.000 |
MuonDigitChecker     INFO  | R4 |  0.000 |  0.000 |  0.000 |  0.000 |
FSROutputStream...   INFO Set up File Summary Record
FSROutputStream...   INFO Events output: 1
DigiWriter           INFO Events output: 10
RawWriter            INFO Events output: 10
EventLoopMgr         INFO Histograms converted successfully according to request.
LHCb::RawDataCn...   INFO Closed connected MDF stream:PFN:Boole-Muon-10ev.mdf ID:0x########
HistogramPersis...   INFO Histograms Converted/Excluded: 0/4
ApplicationMgr       INFO Application Manager Finalized successfully
ApplicationMgr       INFO Application Manager Terminated successfully
BooleInit.Boole...   INFO Number of counters : 2
 |    Counter                                      |     #     |    sum     | mean/eff^* | rms/err^*  |     min     |     max     |
KillVPBanks          INFO Number of counters : 1
 |    Counter                                      |     #     |    sum     | mean/eff^* | rms/err^*  |     min     |     max     |
 | "Requested banks are empty"                     |        10 |
MuonDigitChecker     INFO Number of counters : 96
 |    Counter                                      |     #     |    sum     | mean/eff^* | rms/err^*  |     min     |     max     |
 | "M2R1/Chamber Noise"                            |        10 |          0 |     0.0000 |
 | "M2R1/Crosstalk"                                |        10 |         91 |     9.1000 |
 | "M2R1/Electronic Noise"                         |        10 |          0 |     0.0000 |
 | "M2R1/FlatSpillOver"                            |        10 |          0 |     0.0000 |
 | "M2R1/Geant"                                    |        10 |        695 |     69.500 |
 | "M2R1/Low Energy Background"                    |        10 |          0 |     0.0000 |
 | "M2R2/Chamber Noise"                            |        10 |          0 |     0.0000 |
 | "M2R2/Crosstalk"                                |        10 |         53 |     5.3000 |
 | "M2R2/Electronic Noise"                         |        10 |          0 |     0.0000 |
 | "M2R2/FlatSpillOver"                            |        10 |          0 |     0.0000 |
 | "M2R2/Geant"                                    |        10 |        658 |     65.800 |
 | "M2R2/Low Energy Background"                    |        10 |          0 |     0.0000 |
 | "M2R3/Chamber Noise"                            |        10 |          0 |     0.0000 |
 | "M2R3/Crosstalk"                                |        10 |         25 |     2.5000 |
 | "M2R3/Electronic Noise"                         |        10 |          0 |     0.0000 |
 | "M2R3/FlatSpillOver"                            |        10 |          0 |     0.0000 |
 | "M2R3/Geant"                                    |        10 |        166 |     16.600 |
 | "M2R3/Low Energy Background"                    |        10 |          0 |     0.0000 |
 | "M2R4/Chamber Noise"                            |        10 |          0 |     0.0000 |
 | "M2R4/Crosstalk"                                |        10 |          6 |    0.60000 |
 | "M2R4/Electronic Noise"                         |        10 |          0 |     0.0000 |
 | "M2R4/FlatSpillOver"                            |        10 |          0 |     0.0000 |
 | "M2R4/Geant"                                    |        10 |        122 |     12.200 |
 | "M2R4/Low Energy Background"                    |        10 |          0 |     0.0000 |
 | "M3R1/Chamber Noise"                            |        10 |          0 |     0.0000 |
 | "M3R1/Crosstalk"                                |        10 |         46 |     4.6000 |
 | "M3R1/Electronic Noise"                         |        10 |          0 |     0.0000 |
 | "M3R1/FlatSpillOver"                            |        10 |          0 |     0.0000 |
 | "M3R1/Geant"                                    |        10 |        399 |     39.900 |
 | "M3R1/Low Energy Background"                    |        10 |          0 |     0.0000 |
 | "M3R2/Chamber Noise"                            |        10 |          0 |     0.0000 |
 | "M3R2/Crosstalk"                                |        10 |          2 |    0.20000 |
 | "M3R2/Electronic Noise"                         |        10 |          0 |     0.0000 |
 | "M3R2/FlatSpillOver"                            |        10 |          0 |     0.0000 |
 | "M3R2/Geant"                                    |        10 |         61 |     6.1000 |
 | "M3R2/Low Energy Background"                    |        10 |          0 |     0.0000 |
 | "M3R3/Chamber Noise"                            |        10 |          0 |     0.0000 |
 | "M3R3/Crosstalk"                                |        10 |          7 |    0.70000 |
 | "M3R3/Electronic Noise"                         |        10 |          0 |     0.0000 |
 | "M3R3/FlatSpillOver"                            |        10 |          0 |     0.0000 |
 | "M3R3/Geant"                                    |        10 |         37 |     3.7000 |
 | "M3R3/Low Energy Background"                    |        10 |          0 |     0.0000 |
 | "M3R4/Chamber Noise"                            |        10 |          0 |     0.0000 |
 | "M3R4/Crosstalk"                                |        10 |          0 |     0.0000 |
 | "M3R4/Electronic Noise"                         |        10 |          0 |     0.0000 |
 | "M3R4/FlatSpillOver"                            |        10 |          0 |     0.0000 |
 | "M3R4/Geant"                                    |        10 |         32 |     3.2000 |
 | "M3R4/Low Energy Background"                    |        10 |          0 |     0.0000 |
 | "M4R1/Chamber Noise"                            |        10 |          0 |     0.0000 |
 | "M4R1/Crosstalk"                                |        10 |         14 |     1.4000 |
 | "M4R1/Electronic Noise"                         |        10 |          0 |     0.0000 |
 | "M4R1/FlatSpillOver"                            |        10 |          0 |     0.0000 |
 | "M4R1/Geant"                                    |        10 |         73 |     7.3000 |
 | "M4R1/Low Energy Background"                    |        10 |          0 |     0.0000 |
 | "M4R2/Chamber Noise"                            |        10 |          0 |     0.0000 |
 | "M4R2/Crosstalk"                                |        10 |         10 |     1.0000 |
 | "M4R2/Electronic Noise"                         |        10 |          0 |     0.0000 |
 | "M4R2/FlatSpillOver"                            |        10 |          0 |     0.0000 |
 | "M4R2/Geant"                                    |        10 |         31 |     3.1000 |
 | "M4R2/Low Energy Background"                    |        10 |          0 |     0.0000 |
 | "M4R3/Chamber Noise"                            |        10 |          0 |     0.0000 |
 | "M4R3/Crosstalk"                                |        10 |          1 |    0.10000 |
 | "M4R3/Electronic Noise"                         |        10 |          2 |    0.20000 |
 | "M4R3/FlatSpillOver"                            |        10 |          0 |     0.0000 |
 | "M4R3/Geant"                                    |        10 |         20 |     2.0000 |
 | "M4R3/Low Energy Background"                    |        10 |          0 |     0.0000 |
 | "M4R4/Chamber Noise"                            |        10 |          0 |     0.0000 |
 | "M4R4/Crosstalk"                                |        10 |          0 |     0.0000 |
 | "M4R4/Electronic Noise"                         |        10 |          0 |     0.0000 |
 | "M4R4/FlatSpillOver"                            |        10 |          0 |     0.0000 |
 | "M4R4/Geant"                                    |        10 |          4 |    0.40000 |
 | "M4R4/Low Energy Background"                    |        10 |          0 |     0.0000 |
 | "M5R1/Chamber Noise"                            |        10 |          0 |     0.0000 |
 | "M5R1/Crosstalk"                                |        10 |          7 |    0.70000 |
 | "M5R1/Electronic Noise"                         |        10 |          0 |     0.0000 |
 | "M5R1/FlatSpillOver"                            |        10 |          0 |     0.0000 |
 | "M5R1/Geant"                                    |        10 |         42 |     4.2000 |
 | "M5R1/Low Energy Background"                    |        10 |          0 |     0.0000 |
 | "M5R2/Chamber Noise"                            |        10 |          0 |     0.0000 |
 | "M5R2/Crosstalk"                                |        10 |          1 |    0.10000 |
 | "M5R2/Electronic Noise"                         |        10 |          0 |     0.0000 |
 | "M5R2/FlatSpillOver"                            |        10 |          0 |     0.0000 |
 | "M5R2/Geant"                                    |        10 |         29 |     2.9000 |
 | "M5R2/Low Energy Background"                    |        10 |          0 |     0.0000 |
 | "M5R3/Chamber Noise"                            |        10 |          0 |     0.0000 |
 | "M5R3/Crosstalk"                                |        10 |          3 |    0.30000 |
 | "M5R3/Electronic Noise"                         |        10 |          0 |     0.0000 |
 | "M5R3/FlatSpillOver"                            |        10 |          0 |     0.0000 |
 | "M5R3/Geant"                                    |        10 |         13 |     1.3000 |
 | "M5R3/Low Energy Background"                    |        10 |          0 |     0.0000 |
 | "M5R4/Chamber Noise"                            |        10 |          0 |     0.0000 |
 | "M5R4/Crosstalk"                                |        10 |          0 |     0.0000 |
 | "M5R4/Electronic Noise"                         |        10 |          0 |     0.0000 |
 | "M5R4/FlatSpillOver"                            |        10 |          0 |     0.0000 |
 | "M5R4/Geant"                                    |        10 |          3 |    0.30000 |
 | "M5R4/Low Energy Background"                    |        10 |          0 |     0.0000 |
UnpackMCMuonHits     INFO Number of counters : 1
 |    Counter                                      |     #     |    sum     | mean/eff^* | rms/err^*  |     min     |     max     |
 | "# UnPackedData"                                |        10 |       3204 |     320.40 |     174.09 |      120.00 |      748.00 |
