ApplicationMgr    SUCCESS
====================================================================================================================================
====================================================================================================================================
ApplicationMgr       INFO Application Manager Configured successfully
BooleSequencer       INFO Member list: ProcessPhase/Init, ProcessPhase/Digi, ProcessPhase/Link, ProcessPhase/Moni, ProcessPhase/Filter
RndmGenSvc.Engine    INFO Generator engine type:CLHEP::RanluxEngine
RndmGenSvc.Engine    INFO Current Seed:1234567 Luxury:3
RndmGenSvc           INFO Using Random engine:HepRndm::Engine<CLHEP::RanluxEngine>
Init                 INFO Member list: GaudiSequencer/InitBooleSeq, GaudiSequencer/InitDataSeq
InitBooleSeq         INFO Member list: BooleInit, LHCb::Det::LbDD4hep::IOVProducer/ReserveIOVDD4hep, GaudiSequencer/SpilloverHandler
BooleInit         SUCCESS ==================================================================
BooleInit         SUCCESS Requested to process 10 events
BooleInit         SUCCESS ==================================================================
LHCb::Det::LbDD...   INFO Field map location: DBASE/FieldMap/vXrYpZ/cdf
HistogramPersis...   INFO Added successfully Conversion service RootHistSvc
SpilloverHandler     INFO Member list: TESCheck/SpilloverLoader, EventNodeKiller/SpilloverKiller
InitDataSeq          INFO Member list:
Digi                 INFO Member list: GaudiSequencer/DigiFTSeq
DigiFTSeq            INFO Member list: FTMCHitSpillMerger, MCFTDepositCreator, MCFTDigitCreator, FTClusterCreator, FTRawBankEncoder, LHCb::UnpackRawEvent/UnpackRawEvent, FTRawBankDecoder
MCFTDepositCrea...   INFO Selecting 50/fb attenuation map using power-law radiation damage model without aging fibres and without replaced center module.
Link                 INFO Member list: GaudiSequencer/LinkFTSeq
LinkFTSeq            INFO Member list:
Moni                 INFO Member list: GaudiSequencer/MoniFTSeq
MoniFTSeq            INFO Member list: MCFTDepositMonitor, FTLiteClusterMonitor
Filter               INFO OR Member list:
PrepareDIGI          INFO Member list: PackMCVertex, PackMCParticle
FileRecordPersi...   INFO Added successfully Conversion service FileRecordCnvSvc
FSROutputStream...   INFO Data source: FileRecordDataSvc output: DATAFILE='PFN:Boole-FT-10ev.digi' SVC='FileRecordCnvSvc' OPT='REC'
EventPersistenc...   INFO Added successfully Conversion service RootCnvSvc
DigiWriter           INFO Data source: EventDataSvc output: DATAFILE='PFN:Boole-FT-10ev.digi' SVC='RootCnvSvc' OPT='REC'
KillVPBanks       SUCCESS bankKiller : all banks of type 'VP' will be removed from [ 'DAQ/RawEvent' ]
EventPersistenc...   INFO Added successfully Conversion service LHCb::RawDataCnvSvc
RawWriter            INFO Data source: EventDataSvc output: DATAFILE='PFN:Boole-FT-10ev.mdf' SVC='LHCb::RawDataCnvSvc' OPT='REC'
ApplicationMgr       INFO Application Manager Initialized successfully
LHCb::RawDataCn...   INFO Opened(NEW)  MDF stream:PFN:Boole-FT-10ev.mdf ID:0x########
ApplicationMgr       INFO Application Manager Started successfully
BooleInit            INFO Evt 21307,  Run 23094607,  Nr. in job = 1
DeMagnetConditi...   INFO Loading mag field from DBASE/FieldMap/vXrYpZ/cdf
FTRawBankDecoder     INFO Conditions DB is compatible with FT bank version 7 and 8.
FTRawBankEncoder     INFO Conditions DB is compatible with FT bank version 7 and 8.
BooleInit            INFO Evt 21308,  Run 23094607,  Nr. in job = 2
BooleInit            INFO Evt 21309,  Run 23094607,  Nr. in job = 3
BooleInit            INFO Evt 21310,  Run 23094607,  Nr. in job = 4
BooleInit            INFO Evt 21311,  Run 23094607,  Nr. in job = 5
BooleInit            INFO Evt 21312,  Run 23094607,  Nr. in job = 6
BooleInit            INFO Evt 21313,  Run 23094607,  Nr. in job = 7
BooleInit            INFO Evt 21314,  Run 23094607,  Nr. in job = 8
BooleInit            INFO Evt 21315,  Run 23094607,  Nr. in job = 9
BooleInit            INFO Evt 21316,  Run 23094607,  Nr. in job = 10
ApplicationMgr       INFO Application Manager Stopped successfully
BooleInit         SUCCESS ==================================================================
BooleInit         SUCCESS 10 events processed
BooleInit         SUCCESS ==================================================================
FTClusterCreator     INFO Cluster table:
FTClusterCreator     INFO This may not be complete! Only give the clusters that are present in the file.
			Weights | Chan Frac | Chan Frac | Rand.
			      6 |    0    0 |    0    0 | 0
			     12 |    0    1 |    0    1 | 0
			     16 |    1    0 |    1    0 | 0
			     21 |    0    1 |    0    1 | 0
			     22 |    0    1 |    0    1 | 0
			     26 |    0    1 |    1    0 | 1
			     61 |    0    0 |    0    0 | 0
			     62 |    0    0 |    0    1 | 1
			     66 |    0    1 |    0    1 | 0
			    111 |    1    0 |    1    0 | 0
			    112 |    1    0 |    1    1 | 1
			    116 |    1    1 |    1    1 | 0
			    121 |    1    0 |    1    0 | 0
			    122 |    1    0 |    1    0 | 0
			    126 |    1    1 |    1    1 | 0
			    161 |    1    0 |    1    0 | 0
			    162 |    1    0 |    1    0 | 0
			    166 |    1    1 |    1    1 | 0
			    211 |    0    1 |    1    0 | 1
			    212 |    1    0 |    1    0 | 0
			    216 |    1    1 |    1    1 | 0
			    221 |    1    0 |    1    0 | 0
			    222 |    1    0 |    1    0 | 0
			    226 |    1    1 |    1    1 | 0
			    261 |    1    0 |    1    0 | 0
			    262 |    1    0 |    1    0 | 0
			    266 |    1    1 |    1    1 | 0
			    611 |    0    1 |    0    1 | 0
			    612 |    0    1 |    0    1 | 0
			    616 |    1    0 |    1    0 | 0
			    621 |    0    1 |    0    1 | 0
			    622 |    0    1 |    0    1 | 0
			    626 |    1    0 |    1    0 | 0
			    661 |    0    1 |    0    1 | 0
			    662 |    0    1 |    0    1 | 0
			    666 |    1    0 |    1    0 | 0
			   1111 |    1    1 |    1    1 | 0
			   1112 |    2    0 |    2    0 | 0
			   1116 |    2    1 |    2    1 | 0
			   1121 |    1    1 |    1    1 | 0
			   1122 |    2    0 |    2    0 | 0
			   1126 |    2    1 |    2    1 | 0
			   1161 |    2    0 |    2    0 | 0
			   1162 |    2    0 |    2    0 | 0
			   1166 |    2    0 |    2    0 | 0
			   1211 |    1    1 |    1    1 | 0
			   1212 |    1    1 |    1    1 | 0
			   1216 |    2    0 |    2    0 | 0
			   1221 |    1    1 |    1    1 | 0
			   1222 |    1    1 |    1    1 | 0
			   1226 |    2    0 |    2    0 | 0
			   1261 |    1    1 |    1    1 | 0
			   1262 |    2    0 |    2    0 | 0
			   1266 |    2    0 |    2    0 | 0
			   1611 |    1    0 |    1    0 | 0
			   1612 |    1    1 |    1    1 | 0
			   1616 |    2    0 |    2    0 | 0
			   1621 |    1    1 |    1    1 | 0
			   1622 |    1    1 |    1    1 | 0
			   1626 |    2    0 |    2    0 | 0
			   1661 |    1    1 |    1    1 | 0
			   1662 |    1    1 |    1    1 | 0
			   1666 |    2    0 |    2    0 | 0
			   2111 |    1    0 |    1    0 | 0
			   2112 |    1    1 |    1    1 | 0
			   2116 |    2    0 |    2    0 | 0
			   2121 |    1    1 |    1    1 | 0
			   2122 |    1    1 |    1    1 | 0
			   2126 |    2    0 |    2    0 | 0
			   2161 |    1    1 |    1    1 | 0
			   2162 |    1    1 |    1    1 | 0
			   2166 |    2    0 |    2    0 | 0
			   2211 |    1    0 |    1    0 | 0
			   2212 |    1    1 |    1    1 | 0
			   2216 |    2    0 |    2    0 | 0
			   2221 |    1    1 |    1    1 | 0
			   2222 |    1    1 |    1    1 | 0
			   2226 |    2    0 |    2    0 | 0
			   2261 |    1    1 |    1    1 | 0
			   2262 |    1    1 |    1    1 | 0
			   2266 |    2    0 |    2    0 | 0
			   2611 |    1    0 |    1    0 | 0
			   2612 |    1    1 |    1    1 | 0
			   2616 |    1    1 |    1    1 | 0
			   2621 |    1    0 |    1    0 | 0
			   2622 |    1    1 |    1    1 | 0
			   2626 |    1    1 |    2    0 | 1
			   2661 |    1    1 |    1    1 | 0
			   2662 |    1    1 |    1    1 | 0
			   2666 |    2    0 |    2    0 | 0
			   6111 |    0    1 |    0    1 | 0
			   6112 |    1    0 |    1    0 | 0
			   6116 |    1    1 |    1    1 | 0
			   6121 |    1    0 |    1    0 | 0
			   6122 |    1    0 |    1    0 | 0
			   6126 |    1    1 |    1    1 | 0
			   6161 |    1    0 |    1    0 | 0
			   6162 |    1    1 |    1    1 | 0
			   6166 |    1    1 |    1    1 | 0
			   6211 |    0    1 |    0    1 | 0
			   6212 |    1    0 |    1    0 | 0
			   6216 |    1    1 |    1    1 | 0
			   6221 |    1    0 |    1    0 | 0
			   6222 |    1    0 |    1    0 | 0
			   6226 |    1    1 |    1    1 | 0
			   6261 |    1    0 |    1    0 | 0
			   6262 |    1    0 |    1    1 | 1
			   6266 |    1    1 |    1    1 | 0
			   6611 |    1    0 |    1    0 | 0
			   6612 |    1    0 |    1    0 | 0
			   6616 |    1    1 |    1    1 | 0
			   6621 |    1    0 |    1    0 | 0
			   6622 |    1    0 |    1    0 | 0
			   6626 |    1    1 |    1    1 | 0
			   6661 |    1    0 |    1    0 | 0
			   6662 |    1    0 |    1    0 | 0
			   6666 |    1    1 |    1    1 | 0
FTLiteClusterMo...   INFO  --------FT Lite clusters------------
FTLiteClusterMo...   INFO Cluster efficiency  = ( 97.0 +/-  0.9 )%
FTLiteClusterMo...   INFO Cluster efficiency p>5GeV = ( 98.1 +/-  0.4 )%
FTLiteClusterMo...   INFO  -------------------------------
FSROutputStream...   INFO Set up File Summary Record
FSROutputStream...   INFO Events output: 1
DigiWriter           INFO Events output: 10
RawWriter            INFO Events output: 10
EventLoopMgr         INFO Histograms converted successfully according to request.
LHCb::RawDataCn...   INFO Closed connected MDF stream:PFN:Boole-FT-10ev.mdf ID:0x########
HistogramPersis...   INFO Histograms Converted/Excluded: 0/233
ApplicationMgr       INFO Application Manager Finalized successfully
ApplicationMgr       INFO Application Manager Terminated successfully
BooleInit.Boole...   INFO Number of counters : 2
 |    Counter                                      |     #     |    sum     | mean/eff^* | rms/err^*  |     min     |     max     |
KillVPBanks          INFO Number of counters : 1
 |    Counter                                      |     #     |    sum     | mean/eff^* | rms/err^*  |     min     |     max     |
 | "Requested banks are empty"                     |        10 |
MCFTDepositCreator   INFO Number of counters : 1
 |    Counter                                      |     #     |    sum     | mean/eff^* | rms/err^*  |     min     |     max     |
 | "NbOfMCHits"                                    |        10 |      45996 |     4599.6 |
UnpackMCFTHits       INFO Number of counters : 1
 |    Counter                                      |     #     |    sum     | mean/eff^* | rms/err^*  |     min     |     max     |
 | "# UnPackedData"                                |        10 |      45996 |     4599.6 |     1261.1 |      3116.0 |      6879.0 |
